Id;DurationTot;DurationMin;DurationMax;DurationMean;DurationVar;StartVerticalPositionMin;StartVerticalPositionMax;StartVerticalPositionMean;StartVerticalPositionVar;VerticalSizeMin;VerticalSizeMax;VerticalSizeMean;VerticalSizeVar;PeakVerticalVelocityMin;PeakVerticalVelocityMax;PeakVerticalVelocityMean;PeakVerticalVelocityVar;PeakVerticalAccelerationMin;PeakVerticalAccelerationMax;PeakVerticalAccelerationMean;PeakVerticalAccelerationVar;StartHorizonatalPositionMin;StartHorizonatalPositionMax;StartHorizonatalPositionMean;StartHorizonatalPositionVar;HorizontalSizeMin;HorizontalSizeMax;HorizontalSizeMean;HorizontalSizeVar;StraightnessErrorMin;StraightnessErrorMax;StraightnessErrorMean;StraightnessErrorVar;SlantMin;SlantMax;SlantMean;SlantVar;LoopSurfaceMin;LoopSurfaceMax;LoopSurfaceMean;LoopSurfaceVar;RelativeInitialSluntMin;RelativeInitialSluntMax;RelativeInitialSluntMean;RelativeInitialSluntVar;RelativeTimeToPeakVerticalVelocityMin;RelativeTimeToPeakVerticalVelocityMax;RelativeTimeToPeakVerticalVelocityMean;RelativeTimeToPeakVerticalVelocityVar;AbsoluteSizeMin;AbsoluteSizeMax;AbsoluteSizeMean;AbsoluteSizeVar;AverageAbsoluteVelocityMin;AverageAbsoluteVelocityMax;AverageAbsoluteVelocityMean;AverageAbsoluteVelocityVar;RoadlengthMin;RoadlengthMax;RoadlengthMean;RoadlengthVar;AbsoluteyJerkMin;AbsoluteyJerkMax;AbsoluteyJerkMean;AbsoluteyJerkVar;NormalizedyJerkMin;NormalizedyJerkMax;NormalizedyJerkMean;NormalizedyJerkVar;AbsoluteJerkMin;AbsoluteJerkMax;AbsoluteJerkMean;AbsoluteJerkVar;NormalizedJerkMin;NormalizedJerkMax;NormalizedJerkMean;NormalizedJerkVar;Score;NumberOfPeakAccelerationPointsMin;NumberOfPeakAccelerationPointsMax;NumberOfPeakAccelerationPointsMean;NumberOfPeakAccelerationPointsVar;AveragePenPressureMin;AveragePenPressureMax;AveragePenPressureMean;AveragePenPressureVar;NumOfStrokes;Sex;Age;Work;Instruction;Label
1.00;8.43;0.01;0.82;0.15;0.02;5.22;6.29;5.51;0.04;-0.94;0.74;-0.01;0.07;-7.21;5.72;-0.08;3.94;-68.79;60.21;-1.65;610.67;3.15;5.63;3.60;0.52;-1.35;1.05;0.01;0.13;0.00;0.34;0.04;0.00;-3.14;3.14;-0.54;3.27;0.00;0.10;0.00;0.00;-1.11;1.27;-0.08;0.10;-216.65;0.83;-3.46;841.40;0.00;1.48;0.23;0.14;0.00;5.21;1.00;2.12;0.00;1.53;0.26;0.16;0.15;778.79;136.63;29240.92;0.01;143.62;19.35;781.23;1.45;1497.49;252.20;100899.65;0.39;259.63;36.04;2532.99;0.50;0.00;9.00;1.41;3.16;0.00;2047.00;533.98;697249.10;56.00;    Maschile;  73;   Manuale;     8;   Malato
2.00;25.11;0.01;1.25;0.11;0.03;4.83;7.05;5.61;0.07;-1.19;0.95;-0.01;0.04;-27.83;7.13;-0.15;5.72;-1703.19;293.09;-16.79;23094.65;2.14;4.02;2.97;0.30;-0.77;0.84;0.00;0.01;0.00;0.42;0.04;0.00;-3.14;3.14;-0.25;3.19;-0.00;0.03;0.00;0.00;-1.49;0.89;-0.02;0.06;-23.77;3.96;0.32;2.81;0.00;1.40;0.08;0.04;0.00;17.99;0.47;2.82;0.00;1.44;0.09;0.05;0.01;11589.66;224.18;1045232.17;0.00;716.51;22.07;3222.95;0.05;13376.34;296.69;1578188.40;0.00;772.63;33.93;5119.10;0.50;0.00;20.00;1.08;5.76;0.00;2047.00;1299.44;860456.09;225.00;    Femminile;  69;   Manuale;     5;   Malato
3.00;24.47;0.01;0.86;0.12;0.02;4.01;7.12;5.18;0.18;-2.59;2.31;-0.00;0.13;-57.06;44.51;-0.27;40.69;-3068.62;1459.88;-47.58;139453.24;2.78;6.40;4.24;0.67;-3.09;1.86;0.01;0.11;0.00;0.21;0.03;0.00;-3.14;3.14;-0.29;3.19;-0.09;0.12;0.00;0.00;-1.36;1.63;-0.03;0.10;-494.35;72.81;-1.57;1199.80;0.00;3.73;0.16;0.21;0.00;47.17;1.21;24.45;0.00;3.77;0.17;0.22;0.23;22755.31;632.65;8084210.84;0.13;331.77;19.07;1153.81;0.33;33404.97;924.18;16361353.83;0.18;589.10;27.94;2655.03;1.00;0.00;11.00;1.12;2.93;0.00;2047.00;1022.98;819823.72;209.00;    Maschile;  70;   Intellettuale;     13;   Malato
4.00;8.81;0.01;0.49;0.19;0.01;5.18;6.74;5.54;0.08;-1.14;1.37;0.00;0.15;-7.03;6.51;-0.21;7.25;-296.81;112.91;-3.85;3465.33;2.65;4.49;3.32;0.27;-0.44;0.70;0.03;0.03;0.00;0.11;0.03;0.00;-2.64;2.84;-0.21;2.48;0.00;0.06;0.00;0.00;-1.73;0.33;-0.18;0.14;-3.63;22.13;1.03;12.21;0.00;1.54;0.27;0.11;0.00;4.13;1.26;1.01;0.00;1.57;0.29;0.12;7.41;2731.21;299.56;240247.89;0.02;150.23;17.77;598.06;13.28;3338.80;376.65;349715.21;0.12;183.65;22.66;913.83;1.50;0.00;8.00;1.83;3.80;0.00;1926.17;646.16;550468.02;47.00;    Maschile;  77;   Intellettuale;     8;   Malato
5.00;8.75;0.01;0.56;0.17;0.02;5.04;6.98;5.65;0.19;-1.47;0.85;-0.01;0.13;-32.22;9.39;-0.28;24.94;-1199.34;184.36;-16.83;30280.06;2.64;5.41;3.83;0.43;-2.43;0.99;0.01;0.19;0.00;0.16;0.05;0.00;-3.06;2.84;-0.39;2.60;-0.03;0.04;0.00;0.00;-1.41;1.32;-0.14;0.20;-1.44;1.48;0.35;0.21;0.00;2.84;0.30;0.23;0.06;33.00;1.98;20.81;0.00;2.97;0.33;0.25;28.73;13108.64;622.15;4068708.10;0.02;53.61;14.87;222.91;77.78;26678.04;1165.51;16863888.58;0.04;98.01;22.30;633.25;2.00;0.00;8.00;1.76;2.90;0.00;2047.00;704.58;793213.49;51.00;    Maschile;  77;   Intellettuale;     13;   Malato
6.00;8.55;0.01;0.66;0.18;0.02;5.42;6.43;5.89;0.03;-0.91;0.63;-0.01;0.05;-2.91;2.47;0.11;1.68;-694.46;59.23;-11.89;10970.59;3.43;5.51;4.56;0.43;-0.35;0.38;0.03;0.01;0.00;0.12;0.04;0.00;-3.14;2.38;-0.25;2.29;0.00;0.06;0.00;0.00;-1.13;1.04;-0.07;0.19;-0.82;3.42;0.50;0.29;0.00;0.91;0.17;0.04;0.00;2.67;0.88;0.45;0.00;0.98;0.19;0.05;11.50;458.52;171.89;8155.20;0.06;93.73;18.38;517.80;17.29;786.05;235.94;15864.54;0.08;153.62;26.03;1196.57;1.50;0.00;9.00;2.13;5.64;0.00;1749.00;645.62;457742.39;47.00;    Femminile;  82;   Intellettuale;     18;   Malato
7.00;8.92;0.01;1.03;0.18;0.02;4.40;6.30;5.13;0.15;-1.90;1.46;-0.01;0.35;-11.78;31.40;0.13;38.06;-206.48;1394.13;43.94;64248.86;2.63;5.77;4.09;0.91;-0.56;0.85;0.05;0.05;0.00;0.15;0.04;0.00;-2.98;3.14;-0.24;2.87;-0.06;0.11;0.00;0.00;-0.90;1.55;-0.03;0.24;-18.65;13.83;0.38;11.54;0.01;1.96;0.44;0.20;0.61;17.87;2.76;7.45;0.01;2.12;0.49;0.24;27.64;12613.77;824.83;3654455.86;0.02;138.65;17.03;730.62;45.28;13377.35;928.64;4064817.62;0.03;176.00;20.53;1038.89;2.00;0.00;8.00;1.37;2.32;0.00;2047.00;759.08;887823.44;49.00;    Maschile;  74;   Manuale;     8;   Malato
8.00;4.62;0.01;0.38;0.14;0.01;4.60;6.20;5.41;0.16;-1.29;0.85;-0.03;0.15;-37.46;5.58;-1.11;53.46;-117.33;77.33;-1.10;3262.10;3.52;5.21;4.50;0.28;-0.87;0.47;0.00;0.05;0.00;0.11;0.04;0.00;-2.86;2.28;-0.19;2.49;0.00;0.04;0.00;0.00;-0.52;0.57;-0.11;0.05;-18.72;7.16;-0.04;13.07;0.01;1.35;0.32;0.10;0.38;5.69;2.13;1.28;0.01;1.37;0.35;0.11;58.49;950.17;423.78;38994.13;0.03;44.19;9.57;68.48;128.09;1784.52;539.71;92958.04;0.07;46.71;11.66;82.77;2.50;0.00;3.00;1.45;1.13;0.00;2028.45;905.34;753015.07;33.00;    Maschile;  75;   Intellettuale;     17;   Malato
9.00;10.73;0.02;0.45;0.18;0.02;4.32;6.99;5.56;0.36;-1.78;1.31;-0.03;0.27;-6.73;7.31;-0.10;8.56;-133.91;89.79;-3.14;1583.20;3.19;8.34;5.31;2.54;-3.69;1.09;-0.04;0.39;0.00;0.20;0.03;0.00;-2.91;3.00;-0.36;2.92;-0.04;0.12;0.00;0.00;-0.79;1.23;-0.00;0.09;-0.13;10.68;0.64;1.81;0.00;3.92;0.47;0.43;0.02;8.74;1.90;3.96;0.00;3.93;0.49;0.45;9.07;730.58;213.98;26524.49;0.59;54.25;11.08;103.93;17.60;1785.57;319.15;74959.99;0.98;64.12;16.07;183.60;2.00;0.00;6.00;1.80;2.58;0.00;1838.86;674.32;524229.45;59.00;    Maschile;  83;   Intellettuale;     13;   Malato
10.00;14.14;0.01;1.46;0.22;0.05;5.19;6.83;6.08;0.18;-1.35;1.18;-0.01;0.18;-10.52;7.48;-0.01;7.23;-484.14;114.86;-5.36;5575.12;1.79;4.79;3.45;0.62;-1.67;0.99;0.01;0.13;0.00;0.17;0.03;0.00;-3.14;2.93;-0.34;3.02;-0.00;0.13;0.01;0.00;-1.49;1.19;-0.11;0.18;-0.96;14.18;0.60;3.10;0.00;1.77;0.34;0.19;0.00;13.96;1.36;3.82;0.00;2.09;0.37;0.23;10.00;4322.48;323.02;415034.76;0.02;303.29;28.42;2229.43;12.70;17819.63;722.81;6261241.90;0.03;431.64;41.21;4849.04;1.50;0.00;13.00;2.33;5.74;0.00;2045.11;551.50;673113.29;63.00;    Maschile;  72;   Intellettuale;     13;   Malato
11.00;12.88;0.01;0.88;0.27;0.05;4.37;7.16;5.32;0.48;-2.56;2.43;-0.00;0.50;-56.75;10.24;-0.66;78.07;-2679.52;351.43;-92.84;237338.73;2.77;5.48;3.77;0.73;-1.16;0.80;0.02;0.10;0.00;0.29;0.05;0.00;-3.14;3.14;-0.13;2.98;-0.00;0.15;0.01;0.00;-1.42;1.40;-0.14;0.27;-2.45;5.57;0.57;0.93;0.00;2.81;0.44;0.39;0.01;35.55;1.98;26.13;0.00;3.47;0.52;0.55;25.89;22627.73;1136.92;14223359.76;0.15;1635.32;70.23;56455.78;29.80;24569.33;1288.79;16647523.84;0.67;1782.05;84.49;67795.78;1.00;0.00;9.00;2.98;6.85;0.00;2047.00;626.45;644844.74;47.00;    Femminile;  87;   Manuale;     5;   Malato
12.00;14.28;0.00;0.56;0.14;0.02;5.32;6.48;5.93;0.03;-1.01;0.51;0.00;0.03;-4.12;3.35;-0.00;1.02;-93.51;56.32;-2.06;384.72;3.77;6.20;5.16;0.37;-0.83;0.62;0.00;0.02;0.00;0.26;0.03;0.00;-3.09;3.14;-0.07;3.00;-0.06;0.05;0.00;0.00;-1.10;1.01;-0.05;0.07;-824.70;4.54;-7.75;6674.03;0.00;1.01;0.13;0.04;0.00;5.23;0.61;0.71;0.00;1.04;0.14;0.05;0.00;403.32;93.52;9857.53;0.00;191.32;18.41;935.47;0.00;1250.65;142.92;31111.02;0.00;242.66;24.68;1482.91;1.50;0.00;8.00;1.43;3.95;0.00;1644.30;914.48;433927.49;102.00;    Femminile;  82;   Manuale;     8;   Malato
13.00;9.88;0.00;0.53;0.17;0.02;4.02;6.32;5.40;0.12;-1.07;1.66;-0.01;0.16;-8.69;38.44;0.22;33.70;-258.87;2427.80;60.44;133807.24;2.38;5.35;3.41;0.57;-2.29;0.70;-0.01;0.13;0.00;0.11;0.03;0.00;-2.71;3.01;-0.34;2.22;-0.04;0.06;0.00;0.00;-0.82;0.65;-0.05;0.08;-2.69;17.06;0.75;5.00;0.00;2.50;0.30;0.20;0.00;22.11;1.69;9.46;0.00;2.51;0.32;0.21;0.00;16064.98;726.44;5807830.66;0.00;898.37;28.76;13448.42;0.00;16442.39;822.26;6076100.55;0.00;920.29;33.34;14080.49;1.00;0.00;5.00;1.53;2.01;0.00;787.23;213.16;65012.72;59.00;    Femminile;  77;   Manuale;     8;   Malato
14.00;15.52;0.00;0.82;0.12;0.02;5.18;6.11;5.63;0.02;-0.74;0.66;-0.00;0.04;-4.70;4.67;0.01;2.10;-86.95;71.88;-0.01;492.00;3.12;8.23;5.06;0.42;-1.73;0.64;-0.02;0.06;0.00;0.12;0.02;0.00;-3.13;3.14;-0.19;3.11;-0.00;0.10;0.00;0.00;-0.81;1.36;0.00;0.06;-1.86;13.51;0.48;1.80;0.00;1.76;0.15;0.08;0.00;10.37;0.73;1.74;0.00;1.76;0.16;0.09;0.00;651.06;106.06;19400.04;0.00;120.99;14.99;488.09;0.00;2532.19;166.96;75071.49;0.00;197.77;23.81;1172.86;1.50;0.00;9.00;1.15;3.44;0.00;1958.57;229.88;274356.84;125.00;    Maschile;  77;   Intellettuale;     13;   Malato
15.00;16.11;0.01;0.60;0.14;0.01;5.32;6.20;5.67;0.02;-0.83;0.54;0.00;0.02;-3.65;3.43;-0.01;1.01;-106.11;38.83;-1.91;437.12;2.48;5.08;3.83;0.41;-0.15;0.40;0.02;0.01;0.00;0.32;0.04;0.00;-3.13;3.14;-0.13;2.87;-0.00;0.03;0.00;0.00;-1.31;1.50;-0.01;0.13;-5.97;1.11;0.36;0.40;0.00;0.84;0.09;0.02;0.01;2.46;0.49;0.25;0.00;0.84;0.10;0.03;6.49;527.87;123.51;8290.06;0.04;184.78;17.80;655.48;15.21;599.67;160.64;10783.96;0.07;264.09;24.06;1233.32;1.00;0.00;7.00;1.34;2.21;0.00;1564.48;304.52;247971.89;115.00;    Femminile;  81;   Manuale;     5;   Malato
16.00;9.40;0.00;0.80;0.19;0.02;5.53;6.82;6.12;0.09;-0.71;0.53;-0.01;0.08;-6.60;13.94;0.36;8.52;-57.39;68.06;2.75;815.31;3.22;5.07;4.23;0.32;-1.31;0.40;0.01;0.06;0.00;0.12;0.03;0.00;-3.08;2.06;-0.21;2.25;-0.01;0.04;0.00;0.00;-1.19;1.60;-0.06;0.16;-78.25;8.78;-1.39;128.54;0.00;1.49;0.25;0.07;0.00;2.53;1.10;0.42;0.00;1.52;0.26;0.08;0.00;591.12;210.69;20952.12;0.00;183.47;17.51;799.63;0.00;880.16;278.40;36715.70;0.00;272.67;23.19;1728.01;1.50;0.00;10.00;1.96;4.08;0.00;1883.10;545.77;416239.20;49.00;    Maschile;  79;   Intellettuale;     8;   Malato
17.00;11.31;0.00;0.48;0.17;0.01;5.48;7.08;6.17;0.12;-1.06;0.78;0.00;0.12;-6.08;4.76;0.10;5.80;-185.41;268.96;1.50;3296.61;3.73;5.92;4.48;0.26;-0.43;0.47;0.02;0.02;0.00;0.22;0.04;0.00;-3.12;2.94;0.05;2.55;-0.04;0.07;0.00;0.00;-1.32;1.46;-0.11;0.25;-1.64;5.99;0.48;0.62;0.00;1.06;0.28;0.06;0.00;5.51;1.63;1.19;0.00;1.38;0.32;0.09;0.00;1382.37;291.08;48846.58;0.00;104.44;15.97;412.46;0.00;4818.31;514.08;696189.04;0.00;182.79;24.94;1357.09;1.00;0.00;6.00;1.66;2.16;0.00;1932.18;640.09;562510.93;65.00;    Femminile;  84;   Manuale;     12;   Malato
18.00;11.87;0.02;0.61;0.13;0.02;4.57;6.38;5.76;0.14;-1.24;1.14;0.01;0.07;-6.46;7.78;0.10;3.53;-134.15;367.07;-0.55;2629.67;3.08;5.42;4.16;0.46;-0.49;0.27;0.01;0.01;0.00;0.13;0.03;0.00;-3.11;2.78;-0.03;3.17;-0.01;0.06;0.00;0.00;-0.89;1.08;0.01;0.06;-0.45;1.65;0.43;0.07;0.00;1.24;0.15;0.06;0.00;4.83;0.86;1.06;0.00;1.26;0.16;0.06;0.47;1035.64;189.21;34768.73;0.18;134.87;17.19;564.93;0.59;1094.48;227.78;42862.23;0.25;145.63;21.32;780.40;1.50;0.00;6.00;1.18;1.67;0.00;1711.23;747.11;326332.48;93.00;    Maschile;  86;   Manuale;     8;   Malato
19.00;19.38;0.00;0.68;0.18;0.02;4.85;7.04;5.40;0.08;-1.43;2.18;0.00;0.13;-20.28;11.21;-0.10;9.26;-897.97;812.50;-8.14;17741.18;3.18;6.99;5.33;1.17;-0.72;1.04;0.02;0.05;0.00;0.23;0.04;0.00;-3.14;3.13;-0.16;2.83;-0.12;0.06;-0.00;0.00;-1.64;1.43;-0.08;0.13;-4.95;5.65;0.31;1.17;0.00;2.27;0.26;0.11;0.00;16.73;1.48;3.88;0.00;2.68;0.29;0.15;1.54;8854.22;365.70;1108685.48;0.00;252.57;20.76;1221.30;4.42;11425.93;498.52;1865463.41;0.00;550.33;29.94;3813.37;1.00;0.00;8.00;1.83;3.66;0.00;1282.62;314.55;161840.34;105.00;    Femminile;  77;   Intellettuale;     12;   Malato
20.00;0.00;0.00;0.00;0.00;0.00;29.70;29.70;29.70;0.00;0.00;0.00;0.00;0.00;0.00;0.00;0.00;0.00;0.00;0.00;0.00;0.00;21.00;21.00;21.00;0.00;0.00;0.00;0.00;0.00;0.00;0.00;0.00;0.00;0.00;0.00;0.00;0.00;0.00;0.00;0.00;0.00;0.00;0.00;0.00;0.00;0.00;0.00;0.00;0.00;0.00;0.00;0.00;0.00;0.00;0.00;0.00;0.00;0.00;0.00;0.00;0.00;0.00;0.00;0.00;0.00;0.00;0.00;0.00;0.00;0.00;0.00;0.00;0.00;0.00;0.00;0.00;0.00;1.50;0.00;0.00;0.00;0.00;0.00;0.00;0.00;0.00;1.00;    Femminile;  58;   Manuale;     5;   Malato
21.00;17.29;0.00;0.91;0.13;0.02;3.51;6.74;5.04;0.06;-2.02;2.16;0.00;0.14;-10.31;32.15;0.11;11.53;-200.33;1739.97;20.76;32379.35;2.55;5.15;4.42;0.44;-1.38;0.88;0.01;0.03;0.00;0.15;0.03;0.00;-3.14;3.06;-0.07;3.28;-0.05;0.07;0.00;0.00;-1.41;0.85;-0.04;0.07;-5.29;3.67;0.38;0.59;0.00;2.56;0.15;0.15;0.00;21.26;0.72;4.08;0.00;2.60;0.16;0.16;0.00;13170.44;287.21;1749865.19;0.00;2114.44;32.48;33279.24;0.00;14599.23;337.64;2152643.90;0.00;2397.84;38.74;42834.61;1.00;0.00;10.00;1.26;2.91;0.00;1312.52;419.71;206048.72;135.00;    Femminile;  70;   Manuale;     5;   Malato
22.00;31.80;0.01;0.96;0.10;0.02;5.02;6.67;5.51;0.13;-0.96;1.30;0.00;0.02;-7.91;7.92;-0.00;1.11;-4348.15;855.87;-9.70;63168.53;2.69;5.73;3.89;0.59;-1.93;1.33;0.00;0.03;0.00;0.35;0.02;0.00;-3.14;3.14;-0.27;3.32;0.00;0.12;0.00;0.00;-1.00;0.87;-0.02;0.03;-928.75;7.58;-2.51;2681.40;0.00;2.00;0.07;0.05;0.00;12.68;0.37;1.60;0.00;2.68;0.07;0.06;0.07;3155.49;105.92;111825.05;0.07;261.22;20.13;1041.00;0.12;19782.57;289.94;2265464.28;0.12;617.49;32.41;3533.29;1.50;0.00;11.00;0.96;3.35;0.00;1590.81;198.36;184504.00;322.00;    Femminile;  72;   Manuale;     2;   Malato
23.00;10.97;0.01;1.05;0.23;0.05;4.88;7.08;5.55;0.21;-1.12;1.22;-0.02;0.18;-4.14;3.09;-0.06;2.76;-117.06;37.73;-0.32;724.17;3.06;4.78;3.75;0.33;-0.60;0.48;0.03;0.04;0.00;0.16;0.04;0.00;-3.14;2.87;-0.38;3.17;-0.01;0.09;0.00;0.00;-1.10;1.14;-0.12;0.19;-18.44;5.33;0.19;8.60;0.00;1.30;0.28;0.13;0.00;2.27;0.91;0.54;0.00;1.76;0.32;0.18;12.90;750.15;149.49;21661.16;0.09;459.29;27.51;4639.71;31.34;3466.94;295.23;387268.06;0.24;1745.74;66.56;65981.37;1.00;0.00;13.00;2.60;7.94;0.00;753.19;228.97;69216.43;47.00;    Femminile;  79;   Manuale;     5;   Malato
24.00;12.67;0.01;0.71;0.13;0.02;5.12;6.61;6.15;0.13;-1.39;0.91;-0.01;0.07;-17.60;7.78;0.06;5.78;-589.61;281.02;2.46;5806.91;3.20;6.21;5.02;0.63;-1.93;0.83;0.00;0.06;0.00;0.25;0.04;0.00;-3.14;3.03;-0.46;3.12;-0.05;0.11;0.00;0.00;-0.89;1.28;0.04;0.11;-246.81;12.24;-1.79;615.34;0.00;2.10;0.16;0.10;0.00;24.60;0.99;6.78;0.00;2.21;0.19;0.14;0.22;6745.54;228.12;574260.11;0.03;219.61;16.15;702.51;0.31;18779.77;485.22;4404011.96;0.03;591.36;27.45;3996.72;1.50;0.00;9.00;1.27;3.35;0.00;2015.38;525.61;647576.10;100.00;    Femminile;  72;   Intellettuale;     13;   Malato
25.00;19.82;0.01;0.92;0.21;0.03;4.74;6.82;5.85;0.41;-1.15;1.41;0.00;0.12;-19.73;29.42;0.19;17.45;-926.21;975.24;-0.42;26402.63;2.58;10.19;4.86;2.20;-4.46;1.11;-0.04;0.30;0.00;0.19;0.04;0.00;-3.04;3.09;-0.37;3.18;-0.00;0.12;0.00;0.00;-1.00;1.84;-0.05;0.14;-1.21;1.03;0.40;0.07;0.00;4.67;0.34;0.30;0.02;54.76;2.16;35.13;0.00;4.93;0.37;0.34;8.41;11287.99;530.31;2461453.92;0.10;272.86;19.94;1189.55;31.30;42384.14;1280.97;24675628.64;0.42;416.77;32.33;3325.02;1.00;0.00;12.00;1.82;4.06;0.00;1980.92;348.32;465668.99;96.00;    Maschile;  78;   Manuale;     8;   Malato
26.00;17.78;0.01;1.80;0.19;0.05;3.92;6.93;5.19;0.57;-1.89;1.76;0.00;0.26;-18.12;9.77;-0.06;12.52;-724.15;108.45;-21.02;15637.04;1.44;5.76;3.29;1.61;-1.30;0.99;0.03;0.09;0.00;0.11;0.03;0.00;-2.92;3.14;-0.17;2.84;-0.01;0.11;0.00;0.00;-1.20;1.35;0.01;0.11;-3.13;52.96;0.95;29.40;0.00;2.25;0.33;0.24;0.00;8.75;1.41;2.87;0.00;2.37;0.35;0.27;2.22;6721.18;370.27;799754.06;0.07;508.30;24.38;3202.63;2.39;6729.04;430.98;895332.18;0.07;795.60;31.79;7276.68;1.50;0.00;23.00;1.94;8.93;0.00;1846.67;273.05;269619.20;95.00;    Maschile;  83;   Manuale;     5;   Malato
27.00;0.00;0.00;0.00;0.00;0.00;29.70;29.70;29.70;0.00;0.00;0.00;0.00;0.00;0.00;0.00;0.00;0.00;0.00;0.00;0.00;0.00;21.00;21.00;21.00;0.00;0.00;0.00;0.00;0.00;0.00;0.00;0.00;0.00;0.00;0.00;0.00;0.00;0.00;0.00;0.00;0.00;0.00;0.00;0.00;0.00;0.00;0.00;0.00;0.00;0.00;0.00;0.00;0.00;0.00;0.00;0.00;0.00;0.00;0.00;0.00;0.00;0.00;0.00;0.00;0.00;0.00;0.00;0.00;0.00;0.00;0.00;0.00;0.00;0.00;0.00;0.00;0.00;2.00;0.00;0.00;0.00;0.00;0.00;0.00;0.00;0.00;1.00;    Maschile;  60;   Intellettuale;     18;   Malato
28.00;3.65;0.03;0.47;0.17;0.01;4.53;6.20;5.29;0.17;-1.62;1.30;-0.01;0.48;-16.11;8.49;-0.59;36.55;-247.45;137.16;-7.13;9139.48;3.56;5.90;4.41;0.57;-0.44;0.37;0.06;0.04;0.01;0.08;0.04;0.00;-2.86;2.77;-0.03;3.48;-0.00;0.10;0.01;0.00;-0.93;0.86;-0.20;0.15;0.32;0.81;0.48;0.02;0.03;1.66;0.53;0.22;0.54;9.18;3.05;4.64;0.04;1.71;0.58;0.25;97.37;2367.69;657.21;264921.52;0.55;91.51;14.97;355.78;167.80;2387.35;753.87;301924.46;1.00;93.54;16.57;363.69;1.50;0.00;5.00;1.43;1.26;0.00;2047.00;1341.82;950142.91;21.00;    Maschile;  71;   Intellettuale;     13;   Malato
29.00;6.51;0.01;0.47;0.15;0.02;4.87;6.03;5.45;0.03;-1.06;0.72;-0.01;0.09;-5.46;4.12;-0.01;3.33;-130.52;65.23;3.26;1432.89;3.15;5.56;4.36;0.48;-0.52;0.58;0.04;0.03;0.00;0.20;0.04;0.00;-3.14;3.13;-0.25;3.17;-0.10;0.11;0.00;0.00;-1.39;0.78;-0.17;0.19;-9.36;5.06;0.25;3.07;0.00;1.11;0.22;0.08;0.00;3.72;1.23;1.12;0.00;1.37;0.26;0.12;16.28;452.21;159.85;13729.77;0.05;42.64;9.52;115.91;32.42;560.32;235.42;23113.50;0.12;57.47;13.70;225.10;2.00;0.00;5.00;1.28;2.02;0.00;2014.22;915.21;677765.80;43.00;    Femminile;  48;   Manuale;     18;   Malato
30.00;6.03;0.00;1.01;0.19;0.03;4.93;7.03;5.33;0.12;-1.90;0.49;-0.06;0.16;-3.96;2.33;0.04;2.21;-84.81;505.70;14.91;8902.34;3.57;7.18;4.39;0.39;-3.54;0.32;-0.08;0.43;0.00;0.25;0.06;0.00;-2.82;2.30;-0.36;2.40;-0.02;0.04;0.00;0.00;-0.98;0.71;-0.09;0.15;-1.28;1.29;0.41;0.17;0.00;4.02;0.29;0.51;0.00;3.99;1.08;0.64;0.00;4.03;0.32;0.51;0.00;618.48;159.84;11738.05;0.00;111.62;13.71;382.74;0.00;1314.19;248.22;47831.96;0.00;237.17;22.54;1698.83;1.50;0.00;10.00;1.55;3.79;0.00;503.11;219.28;30799.07;31.00;    Maschile;  75;   Manuale;     13;   Malato
31.00;32.72;0.01;0.79;0.14;0.02;4.35;7.09;5.58;0.20;-1.87;1.77;-0.01;0.13;-191255842556.22;41.58;-803595977.33;153692425679877242880.00;-3766.27;2144.29;-42.16;214115.56;3.27;6.99;4.78;1.11;-2.10;2.64;-0.01;0.11;0.00;0.29;0.03;0.00;-3.14;3.14;-0.08;3.22;-0.20;0.08;-0.00;0.00;-1.87;1.81;0.01;0.10;-1.57;7083549724304460.00;29762813967666.12;210826372675182879666004295680.00;0.00;2.72;0.21;0.19;0.00;35.91;1.86;26.60;0.00;3.14;0.25;0.28;0.07;26129.79;1014.20;10597145.11;0.10;741.38;31.58;6549.22;0.15;26988.91;1619.38;21186492.82;0.16;758.99;42.08;8522.04;1.00;0.00;11.00;1.33;3.61;0.00;2047.00;860.18;839792.05;238.00;    Femminile;  81;   Manuale;     5;   Malato
32.00;9.79;0.00;0.81;0.20;0.04;4.42;5.94;5.10;0.07;-1.07;0.98;-0.01;0.10;-3.77;3.28;-0.01;1.80;-35.01;46.43;-0.56;313.50;3.22;5.50;4.13;0.38;-0.17;0.45;0.05;0.02;0.00;0.20;0.03;0.00;-2.99;3.14;-0.21;2.80;0.00;0.05;0.00;0.00;-1.14;1.14;-0.10;0.15;-1.48;94.25;2.28;180.04;0.00;1.08;0.20;0.08;0.00;2.32;0.69;0.48;0.00;1.17;0.22;0.09;0.00;320.36;113.50;10019.90;0.00;257.69;24.34;1826.70;0.00;471.96;149.93;15397.32;0.00;292.77;32.41;2724.93;1.50;0.00;12.00;2.12;8.98;0.00;1797.54;762.98;433165.77;49.00;    Femminile;  50;   Manuale;     13;   Malato
33.00;12.26;0.01;0.44;0.15;0.01;4.81;5.98;5.31;0.05;-1.13;0.82;0.00;0.07;-14.32;4.99;0.02;5.93;-461.81;91.24;-10.49;6070.27;2.62;4.89;3.55;0.53;-1.51;0.57;0.00;0.05;0.00;0.10;0.03;0.00;-3.14;3.07;-0.32;3.61;-0.07;0.16;0.00;0.00;-0.86;1.66;0.03;0.10;-2.23;1.87;0.41;0.15;0.00;1.65;0.20;0.08;0.03;18.81;1.39;4.88;0.00;1.69;0.22;0.10;16.92;6128.97;307.72;525317.41;0.05;140.38;11.97;321.50;28.18;14293.80;553.79;2881205.06;0.08;174.28;16.50;527.21;2.00;0.00;5.00;1.42;1.71;0.00;2047.00;496.81;667246.56;83.00;    Maschile;  69;   Manuale;     5;   Malato
34.00;5.03;0.05;0.52;0.22;0.01;4.33;6.17;5.01;0.23;-1.66;1.60;0.03;0.44;-8.72;6.61;0.07;14.80;-71.15;53.25;1.58;1916.04;2.79;5.35;4.04;0.73;-0.56;1.09;0.09;0.10;0.01;0.15;0.06;0.00;-2.92;2.43;-0.05;2.73;0.00;0.11;0.01;0.00;-1.23;0.37;-0.38;0.12;0.19;0.79;0.48;0.02;0.03;1.94;0.52;0.27;0.56;4.98;2.27;1.49;0.03;2.05;0.58;0.30;90.60;542.14;282.56;13003.65;1.75;36.36;11.38;54.10;121.05;583.54;337.08;18410.51;2.33;45.38;13.92;94.51;2.50;0.00;4.00;1.65;1.33;0.00;1295.43;644.15;183181.50;23.00;    Femminile;  65;   Intellettuale;     16;   Malato
35.00;5.55;0.00;0.57;0.16;0.01;3.94;5.33;4.60;0.06;-1.39;0.78;0.01;0.14;-9.02;5.12;0.10;7.00;-112.54;53.85;0.80;1264.44;3.34;5.65;4.19;0.41;-0.27;0.34;0.04;0.02;0.00;0.17;0.05;0.00;-3.05;2.81;-0.16;3.19;-0.06;0.08;0.00;0.00;-0.86;1.40;-0.12;0.18;0.00;28.77;1.22;23.00;0.00;1.39;0.26;0.09;0.00;4.91;1.41;1.05;0.00;1.42;0.29;0.11;0.00;668.28;214.58;19513.82;0.00;73.23;11.50;166.31;0.00;708.65;251.85;21866.75;0.00;100.13;13.99;292.66;2.00;0.00;3.00;1.31;0.93;0.00;1358.40;382.72;194903.26;35.00;    Femminile;  79;   Intellettuale;     18;   Malato
36.00;7.13;0.03;0.94;0.22;0.03;3.47;6.25;4.84;0.36;-2.78;1.37;0.02;0.62;-171.86;11.51;-5.61;929.73;-732.46;234.48;-47.88;43826.68;3.19;6.27;4.34;0.85;-0.99;1.05;0.08;0.17;0.00;0.21;0.05;0.00;-2.96;2.90;-0.45;2.81;-0.02;0.28;0.01;0.00;-1.35;1.07;-0.21;0.21;-103.54;0.86;-2.67;327.96;0.02;2.95;0.61;0.41;0.42;8.84;3.05;4.16;0.02;3.07;0.69;0.47;169.18;8871.99;907.72;2852743.24;0.29;1821.89;71.74;99202.03;208.61;8889.05;1011.01;2814237.24;0.35;1825.40;74.68;99301.19;1.50;0.00;11.00;2.18;4.47;0.00;2047.00;953.23;902432.05;33.00;    Maschile;  69;   Intellettuale;     13;   Malato
37.00;5.77;0.01;0.46;0.16;0.01;4.93;6.15;5.60;0.05;-1.18;0.73;-0.00;0.12;-9.58;3.81;-0.34;7.93;-119.22;42.46;-2.43;1251.44;2.78;4.85;3.53;0.35;-0.80;0.50;0.04;0.04;0.00;0.14;0.04;0.00;-3.13;3.14;-0.36;3.04;-0.01;0.07;0.00;0.00;-1.07;0.66;-0.10;0.13;-39.45;9.99;-0.54;46.11;0.00;1.18;0.26;0.08;0.02;3.72;1.30;1.13;0.00;1.19;0.28;0.10;9.28;869.76;206.32;36811.52;0.09;75.88;11.24;175.11;24.04;888.66;274.79;42939.51;0.45;84.87;14.82;225.22;2.00;0.00;6.00;1.68;2.56;0.00;1990.20;990.51;689357.73;37.00;    Femminile;  47;   Manuale;     8;   Malato
38.00;16.48;0.00;1.19;0.25;0.08;5.50;7.08;6.35;0.18;-1.41;1.56;-0.01;0.19;-7.30;3.35;-0.01;3.40;-264.08;2284.95;31.83;82735.06;2.57;5.12;3.81;0.58;-0.75;0.62;0.01;0.05;0.00;0.12;0.03;0.00;-3.11;2.99;-0.32;2.90;0.00;0.09;0.00;0.00;-1.54;1.31;-0.12;0.19;-1.11;4.80;0.49;0.46;0.00;1.56;0.29;0.15;0.00;3.11;0.95;0.70;0.00;1.68;0.33;0.19;6.81;2603.71;275.63;159850.75;0.00;487.18;51.39;9953.60;6.91;6684.03;466.82;906875.23;0.00;1250.64;77.50;32853.63;1.50;0.00;16.00;3.05;15.64;0.00;2047.00;868.72;800207.99;65.00;    Femminile;  78;   Manuale;     5;   Malato
39.00;6.94;0.01;0.63;0.15;0.01;5.99;7.06;6.58;0.03;-0.68;0.74;0.01;0.05;-4.55;3.60;0.17;2.88;-479.16;71.14;-10.88;6624.07;3.65;5.52;4.52;0.32;-0.65;0.29;0.02;0.02;0.00;0.14;0.04;0.00;-3.14;2.43;-0.14;2.66;0.00;0.04;0.00;0.00;-0.80;0.62;-0.11;0.07;-421.24;1.02;-8.98;3950.71;0.00;0.75;0.18;0.04;0.00;3.19;1.11;0.63;0.00;0.97;0.21;0.05;36.47;915.29;239.42;38074.15;0.58;132.88;15.46;579.07;56.08;1476.30;358.82;77169.18;0.72;231.02;24.89;2066.70;2.00;0.00;9.00;1.62;3.06;0.00;2047.00;871.57;680455.74;45.00;    Maschile;  77;   Intellettuale;     18;   Malato
40.00;6.47;0.01;0.47;0.20;0.01;5.82;7.08;6.39;0.08;-1.22;1.24;-0.00;0.22;-9.11;6.48;-0.10;10.76;-264.36;62.05;-8.38;3926.60;3.36;5.98;4.82;0.66;-1.21;0.49;0.03;0.08;0.00;0.15;0.04;0.00;-3.14;2.84;-0.25;2.90;-0.08;0.10;0.01;0.00;-1.27;1.32;-0.02;0.22;-0.69;2.79;0.58;0.39;0.00;1.32;0.40;0.14;0.03;5.57;1.83;1.74;0.00;1.52;0.44;0.18;12.66;1448.92;326.36;110572.42;0.07;60.28;14.63;222.06;31.37;3042.18;476.02;396613.68;0.11;95.53;20.35;477.77;2.50;0.00;6.00;2.00;2.56;0.00;1388.52;507.03;198686.14;33.00;    Maschile;  80;   Manuale;     13;   Malato
41.00;6.24;0.01;0.84;0.16;0.02;5.66;7.06;6.48;0.07;-1.37;0.78;-0.01;0.13;-11.40;5.05;-0.18;9.93;-192.75;97.62;-2.43;3286.20;3.29;6.26;4.53;0.98;-0.30;0.37;0.07;0.02;0.00;0.20;0.05;0.00;-2.49;2.43;-0.40;1.93;0.00;0.09;0.00;0.00;-2.22;0.19;-0.22;0.19;-1.57;5.03;0.63;0.98;0.00;1.38;0.28;0.07;0.01;6.24;1.92;1.77;0.00;1.44;0.33;0.10;75.94;1051.41;337.59;66232.57;0.03;363.75;19.64;3264.62;87.43;1936.06;444.04;146528.52;0.03;863.25;35.49;18677.01;2.00;0.00;10.00;1.41;3.09;0.00;2047.00;1269.39;904900.44;39.00;    Maschile;  67;   Intellettuale;     13;   Malato
42.00;5.18;0.02;0.32;0.17;0.01;5.14;7.00;6.11;0.12;-1.60;0.79;-0.03;0.27;-9.52;6.53;-0.15;15.51;-157.28;142.70;12.22;4906.55;3.60;5.91;4.50;0.53;-1.07;0.55;0.04;0.08;0.00;0.14;0.05;0.00;-2.71;3.07;0.03;2.65;-0.05;0.12;0.00;0.00;-1.26;1.22;-0.23;0.19;-2.13;1.78;0.34;0.49;0.04;1.60;0.45;0.14;0.96;8.29;2.87;2.33;0.04;1.65;0.52;0.18;35.38;1014.83;409.19;53703.23;0.04;29.05;9.61;42.41;54.76;1532.26;529.05;103406.08;0.06;36.76;12.17;76.29;2.50;0.00;5.00;1.48;1.59;0.00;1928.10;830.10;587526.98;31.00;    Maschile;  71;   Intellettuale;     18;   Malato
43.00;10.12;0.01;0.50;0.11;0.01;4.74;6.65;5.74;0.06;-1.53;0.87;-0.01;0.10;-10.53;88.40;0.93;87.53;-268.30;97.02;1.11;2315.61;2.79;5.91;5.15;1.01;-0.97;0.55;0.02;0.02;0.00;0.33;0.04;0.00;-3.10;3.14;-0.18;2.39;-0.04;0.07;0.00;0.00;-1.27;0.94;-0.09;0.08;-796.99;129.30;-6.98;6829.42;0.00;1.54;0.17;0.09;0.00;5.77;1.01;2.04;0.00;1.56;0.20;0.11;0.02;821.01;183.07;57756.16;0.00;173.77;12.54;492.37;0.04;1043.40;217.50;77954.91;0.00;693.82;22.03;5159.21;2.00;0.00;5.00;0.86;1.76;0.00;2047.00;1514.25;637575.68;96.00;    Femminile;  81;   Manuale;     5;   Malato
44.00;4.29;0.00;0.35;0.16;0.01;4.84;6.76;5.40;0.18;-1.31;1.20;-0.04;0.36;-13.32;7.62;-0.56;23.75;-333.32;147.34;-7.40;11467.34;3.09;5.62;4.38;0.51;-0.93;0.56;0.05;0.06;0.00;0.14;0.04;0.00;-2.15;2.88;-0.24;2.05;-0.04;0.21;0.02;0.00;-0.64;1.48;-0.06;0.20;-1.29;6.18;0.68;1.77;0.00;1.55;0.48;0.19;0.00;6.80;2.84;2.65;0.00;1.63;0.53;0.24;0.00;2534.94;571.09;217249.76;0.00;47.26;12.63;130.57;0.00;2916.28;676.70;294490.92;0.00;57.51;14.72;176.19;2.50;0.00;6.00;1.78;1.95;0.00;2047.00;1198.11;942722.64;27.00;    Femminile;  72;   Intellettuale;     18;   Malato
45.00;6.32;0.00;0.38;0.15;0.01;5.26;6.81;5.69;0.06;-1.37;0.53;-0.02;0.13;-24.43;4.51;-0.81;21.84;-90.45;120.72;6.92;3125.21;3.11;5.15;4.10;0.35;-0.62;0.76;0.03;0.08;0.00;0.33;0.06;0.01;-2.86;3.14;-0.42;2.78;-0.03;0.07;0.00;0.00;-1.06;0.58;-0.04;0.08;-9.31;111.85;3.12;292.93;0.00;1.37;0.32;0.10;0.00;5.35;2.35;2.51;0.00;1.60;0.39;0.14;6.76;641.10;280.04;31884.62;0.00;75.99;10.87;236.13;39.86;1077.98;429.36;66110.49;0.00;104.14;16.28;449.46;2.00;0.00;5.00;1.26;1.72;0.00;1977.53;482.32;430978.23;43.00;    Maschile;  70;   Intellettuale;     18;   Malato
46.00;0.00;0.00;0.00;0.00;0.00;29.70;29.70;29.70;0.00;0.00;0.00;0.00;0.00;0.00;0.00;0.00;0.00;0.00;0.00;0.00;0.00;21.00;21.00;21.00;0.00;0.00;0.00;0.00;0.00;0.00;0.00;0.00;0.00;0.00;0.00;0.00;0.00;0.00;0.00;0.00;0.00;0.00;0.00;0.00;0.00;0.00;0.00;0.00;0.00;0.00;0.00;0.00;0.00;0.00;0.00;0.00;0.00;0.00;0.00;0.00;0.00;0.00;0.00;0.00;0.00;0.00;0.00;0.00;0.00;0.00;0.00;0.00;0.00;0.00;0.00;0.00;0.00;2.50;0.00;0.00;0.00;0.00;0.00;0.00;0.00;0.00;1.00;    Maschile;  86;   Manuale;     8;   Sano
47.00;2.96;0.01;0.36;0.16;0.01;5.24;7.01;6.09;0.14;-1.63;1.17;0.01;0.41;-29.14;8.89;-1.21;69.35;-337.46;1809.95;83.47;187237.71;2.96;5.64;4.25;0.79;-0.57;1.15;0.14;0.17;0.00;0.09;0.03;0.00;-2.83;1.17;-0.39;1.71;-0.03;0.11;0.01;0.00;-0.35;1.69;0.01;0.19;-81.93;0.91;-3.86;357.39;0.01;1.69;0.56;0.27;0.00;6.91;3.31;4.09;0.00;1.73;0.62;0.29;91.18;1324.36;514.00;71460.48;0.02;82.05;10.80;311.13;300.99;1414.13;707.98;85210.17;0.05;136.94;15.90;879.12;2.00;0.00;6.00;1.26;2.09;0.00;2047.00;1596.86;720466.17;19.00;    Maschile;  52;   Intellettuale;     18;   Sano
48.00;0.00;0.00;0.00;0.00;0.00;29.70;29.70;29.70;0.00;0.00;0.00;0.00;0.00;0.00;0.00;0.00;0.00;0.00;0.00;0.00;0.00;21.00;21.00;21.00;0.00;0.00;0.00;0.00;0.00;0.00;0.00;0.00;0.00;0.00;0.00;0.00;0.00;0.00;0.00;0.00;0.00;0.00;0.00;0.00;0.00;0.00;0.00;0.00;0.00;0.00;0.00;0.00;0.00;0.00;0.00;0.00;0.00;0.00;0.00;0.00;0.00;0.00;0.00;0.00;0.00;0.00;0.00;0.00;0.00;0.00;0.00;0.00;0.00;0.00;0.00;0.00;0.00;2.50;0.00;0.00;0.00;0.00;0.00;0.00;0.00;0.00;1.00;    Femminile;  57;   Intellettuale;     18;   Sano
49.00;0.00;0.00;0.00;0.00;0.00;29.70;29.70;29.70;0.00;0.00;0.00;0.00;0.00;0.00;0.00;0.00;0.00;0.00;0.00;0.00;0.00;21.00;21.00;21.00;0.00;0.00;0.00;0.00;0.00;0.00;0.00;0.00;0.00;0.00;0.00;0.00;0.00;0.00;0.00;0.00;0.00;0.00;0.00;0.00;0.00;0.00;0.00;0.00;0.00;0.00;0.00;0.00;0.00;0.00;0.00;0.00;0.00;0.00;0.00;0.00;0.00;0.00;0.00;0.00;0.00;0.00;0.00;0.00;0.00;0.00;0.00;0.00;0.00;0.00;0.00;0.00;0.00;2.50;0.00;0.00;0.00;0.00;0.00;0.00;0.00;0.00;1.00;    Femminile;  54;   Manuale;     8;   Sano
50.00;5.20;0.02;0.27;0.13;0.01;4.73;6.13;5.23;0.06;-1.40;0.99;0.01;0.18;-10.34;7.40;-0.12;13.11;-127.26;87.62;-5.57;3025.25;2.97;5.49;4.28;0.58;-0.54;0.53;0.05;0.03;0.00;0.09;0.04;0.00;-2.92;2.87;-0.17;2.54;-0.00;0.13;0.01;0.00;-0.58;0.24;-0.14;0.05;-0.15;2.40;0.44;0.14;0.00;1.45;0.30;0.12;0.00;6.21;1.80;2.80;0.00;1.49;0.33;0.15;1.76;925.95;298.74;63303.42;1.31;33.43;10.30;47.96;1.78;1004.28;362.91;74764.94;1.79;44.69;12.20;60.93;2.00;0.00;4.00;0.98;1.22;0.00;2019.30;1385.96;615460.33;41.00;    Femminile;  59;   Intellettuale;     11;   Sano
51.00;15.82;0.01;1.11;0.18;0.04;4.99;6.21;5.59;0.03;-1.21;0.77;-0.00;0.06;-4.91;3.25;0.05;1.22;-41.03;4082.66;47.68;187652.59;3.47;5.83;4.26;0.33;-0.47;0.91;0.02;0.03;0.00;0.21;0.04;0.00;-3.11;3.14;-0.13;3.30;-0.01;0.13;0.00;0.00;-1.31;1.47;-0.01;0.16;-11.69;5.61;0.22;2.86;0.00;1.28;0.14;0.06;0.00;2.74;0.51;0.41;0.00;1.31;0.16;0.07;0.29;426.42;106.65;9067.44;0.00;319.31;25.16;2280.98;1.80;603.53;152.02;16129.75;0.00;390.75;35.12;3825.16;1.50;0.00;14.00;1.87;6.69;0.00;1781.42;383.18;368964.62;89.00;    Femminile;  70;   Manuale;     5;   Sano
52.00;2.56;0.03;0.42;0.17;0.01;5.03;6.22;5.61;0.13;-1.19;1.03;-0.03;0.37;-10.07;8.60;-0.91;26.06;-118.78;194.89;12.01;10999.72;2.81;4.92;3.77;0.42;-0.46;0.40;0.13;0.04;0.01;0.29;0.08;0.01;-2.07;1.55;-0.08;1.33;-0.00;0.13;0.02;0.00;-1.94;1.00;-0.31;0.37;-1.73;0.91;0.34;0.35;0.06;1.25;0.51;0.16;1.31;6.02;3.33;2.20;0.07;1.26;0.60;0.17;198.40;1111.77;487.43;80144.38;0.36;44.06;10.59;140.86;217.72;1253.73;658.47;89449.26;0.40;49.68;14.77;223.89;2.00;0.00;3.00;1.27;0.64;0.00;2047.00;1512.76;414566.60;15.00;    Femminile;  51;   Manuale;     13;   Sano
53.00;0.00;0.00;0.00;0.00;0.00;29.70;29.70;29.70;0.00;0.00;0.00;0.00;0.00;0.00;0.00;0.00;0.00;0.00;0.00;0.00;0.00;21.00;21.00;21.00;0.00;0.00;0.00;0.00;0.00;0.00;0.00;0.00;0.00;0.00;0.00;0.00;0.00;0.00;0.00;0.00;0.00;0.00;0.00;0.00;0.00;0.00;0.00;0.00;0.00;0.00;0.00;0.00;0.00;0.00;0.00;0.00;0.00;0.00;0.00;0.00;0.00;0.00;0.00;0.00;0.00;0.00;0.00;0.00;0.00;0.00;0.00;0.00;0.00;0.00;0.00;0.00;0.00;2.50;0.00;0.00;0.00;0.00;0.00;0.00;0.00;0.00;1.00;    Maschile;  24;   Intellettuale;     13;   Sano
54.00;4.04;0.03;0.51;0.18;0.01;5.60;6.97;6.21;0.11;-1.35;1.03;-0.01;0.31;-10.12;6.98;-0.37;22.52;-114.73;154.05;3.42;5690.51;3.18;5.46;4.28;0.38;-0.62;0.67;0.08;0.09;0.00;0.07;0.03;0.00;-2.47;1.05;-0.67;2.05;-0.00;0.08;0.01;0.00;-0.51;0.24;-0.11;0.04;-4.22;3.13;0.35;1.36;0.03;1.43;0.50;0.15;0.56;6.27;2.98;2.56;0.03;1.44;0.53;0.16;66.00;1104.44;485.81;75015.49;0.37;73.92;11.66;233.84;109.89;1452.13;629.43;116078.69;0.51;103.17;15.59;449.27;2.00;0.00;4.00;1.57;1.35;0.00;1974.80;1071.39;592853.33;23.00;    Femminile;  69;   Intellettuale;     17;   Sano
55.00;4.10;0.01;0.45;0.20;0.01;4.96;5.93;5.44;0.05;-0.98;0.66;0.01;0.15;-4.24;4.76;0.30;6.61;-57.50;70.36;9.55;1397.92;4.24;6.09;5.17;0.36;-0.27;0.29;0.08;0.01;0.00;0.11;0.04;0.00;-2.71;2.34;0.08;1.79;-0.02;0.10;0.01;0.00;-1.15;0.96;-0.25;0.20;-0.58;3.53;0.78;1.04;0.01;0.98;0.30;0.07;0.15;3.11;1.56;0.79;0.01;1.04;0.35;0.10;29.30;498.36;249.13;22564.88;0.03;62.77;14.87;235.36;72.40;558.72;311.86;27667.98;0.08;91.59;19.88;540.17;1.50;0.00;6.00;1.86;2.93;0.00;2042.50;1233.06;610315.90;21.00;    Femminile;  75;   Intellettuale;     18;   Sano
56.00;2.32;0.07;0.32;0.15;0.00;4.92;6.37;5.72;0.11;-1.31;0.93;0.00;0.34;-10.58;7.65;0.17;25.54;-146.85;126.52;-1.85;7128.62;4.36;6.25;5.30;0.35;-0.32;0.62;0.13;0.07;0.01;0.14;0.06;0.00;-2.51;1.31;-0.45;1.73;-0.07;0.09;0.00;0.00;-0.77;1.05;-0.13;0.17;0.25;2.60;0.62;0.32;0.05;1.32;0.49;0.16;1.12;6.46;3.21;2.77;0.08;1.36;0.57;0.20;279.70;1013.67;587.09;66653.32;3.74;26.83;9.86;33.45;404.33;1281.90;786.86;104216.88;4.97;44.78;13.66;92.64;2.00;0.00;4.00;1.47;1.12;0.00;2047.00;1898.67;277989.38;15.00;    Maschile;  51;   Intellettuale;     13;   Sano
57.00;4.33;0.02;0.43;0.16;0.01;4.11;5.64;4.79;0.18;-1.49;1.04;-0.00;0.31;-24.77;11.45;-0.48;45.14;-908.08;236.11;-83.70;66604.63;3.02;5.09;4.08;0.46;-1.76;0.43;0.02;0.15;0.00;0.18;0.05;0.00;-2.58;2.03;-0.07;2.13;0.00;0.08;0.01;0.00;-0.76;1.31;-0.16;0.15;-4.82;0.92;0.13;1.92;0.02;2.09;0.47;0.24;0.83;26.44;3.54;23.68;0.02;2.12;0.52;0.27;87.73;9830.81;1100.40;4343821.64;0.20;64.52;10.87;141.19;127.43;19130.03;1865.23;16638511.72;0.29;76.85;14.39;229.31;1.50;0.00;5.00;1.19;1.39;0.00;2043.18;1114.53;794691.89;27.00;    Maschile;  51;   Intellettuale;     13;   Sano
58.00;5.51;0.01;0.35;0.14;0.01;5.02;6.20;5.49;0.05;-1.18;0.86;0.00;0.13;-22.74;17.34;-0.06;27.06;-85.45;66.22;3.28;1479.84;3.64;5.65;4.51;0.37;-0.62;0.77;0.05;0.04;0.00;0.13;0.04;0.00;-3.14;2.83;-0.26;3.15;0.00;0.11;0.01;0.00;-0.92;1.41;-0.11;0.15;-33.60;40.68;0.75;73.62;0.00;1.18;0.27;0.09;0.01;6.53;1.71;2.27;0.00;1.27;0.31;0.12;5.06;487.04;215.41;19620.10;0.06;48.59;9.65;132.89;14.28;614.41;294.86;30119.53;0.09;72.75;12.96;228.16;2.00;0.00;5.00;1.23;1.92;0.00;1910.35;658.84;600928.23;39.00;    Femminile;  72;   Intellettuale;     13;   Malato
59.00;4.68;0.03;0.27;0.17;0.01;4.55;6.25;5.40;0.12;-1.70;1.14;-0.01;0.33;-11.60;7.18;-0.38;19.99;-118.71;984.27;34.78;39267.41;3.17;5.84;4.48;0.73;-0.67;0.80;0.07;0.09;0.00;0.11;0.04;0.00;-2.60;2.99;-0.39;2.65;-0.05;0.15;0.01;0.00;-0.75;0.36;-0.15;0.07;-1.22;1.27;0.48;0.17;0.03;1.83;0.49;0.17;0.87;7.14;2.90;2.04;0.03;1.86;0.54;0.20;118.71;879.82;417.57;31692.74;0.81;20.97;8.05;28.62;178.92;910.94;493.63;33840.24;0.93;25.94;9.79;42.53;2.50;0.00;4.00;1.25;0.94;0.00;2046.15;1154.75;778037.92;28.00;    Maschile;  65;   Manuale;     11;   Malato
60.00;3.60;0.03;0.43;0.17;0.01;5.36;6.50;5.88;0.07;-1.07;0.81;-0.01;0.20;-7.03;5.12;-0.41;11.99;-156.25;362.96;9.97;10972.39;3.99;6.15;4.94;0.36;-0.42;0.35;0.08;0.02;0.00;0.13;0.06;0.00;-2.48;1.63;-0.32;1.77;-0.06;0.04;0.00;0.00;-0.75;1.23;-0.18;0.18;-3.16;0.68;0.19;0.82;0.01;1.07;0.36;0.10;0.26;4.17;2.06;1.07;0.01;1.17;0.42;0.12;55.92;1005.42;456.00;59401.67;0.55;110.45;15.99;555.08;122.13;1165.28;533.45;74582.81;2.10;128.01;18.81;765.99;2.00;0.00;6.00;1.62;1.95;0.00;2047.00;1523.44;615434.43;21.00;    Femminile;  62;   Intellettuale;     13;   Sano
61.00;1.75;0.01;0.21;0.15;0.00;4.38;5.70;5.06;0.17;-0.87;1.32;-0.00;0.40;-9.18;10.90;0.28;43.83;-146.82;266.97;38.78;19493.25;3.35;5.22;4.25;0.34;-0.34;0.83;0.12;0.12;0.00;0.14;0.04;0.00;-2.89;0.98;-0.57;1.95;0.00;0.09;0.01;0.00;-1.22;0.20;-0.19;0.13;0.20;8.85;1.12;5.94;0.01;1.56;0.55;0.21;1.07;8.56;3.72;5.40;0.02;1.63;0.60;0.23;228.14;1476.08;640.17;137336.64;0.11;19.29;9.16;30.47;305.64;1527.60;798.75;148011.96;0.15;30.99;11.91;72.19;2.50;0.00;3.00;1.58;0.99;0.00;2003.00;1420.71;336044.85;12.00;    Maschile;  66;   Intellettuale;     18;   Sano
62.00;5.37;0.02;0.62;0.17;0.02;4.30;6.00;5.00;0.13;-1.49;1.27;0.01;0.31;-19.20;7.14;-0.39;27.81;-665.92;148.97;-34.49;25677.19;3.24;5.50;4.21;0.47;-0.45;0.31;0.04;0.03;0.00;0.16;0.05;0.00;-3.02;3.12;0.01;2.83;-0.05;0.17;0.01;0.00;-1.34;0.97;-0.21;0.19;-0.49;4.04;0.52;0.47;0.00;1.56;0.40;0.18;0.08;7.15;2.34;3.28;0.00;1.57;0.46;0.22;44.30;6845.82;658.48;1719102.45;0.22;583.52;31.90;11021.43;46.72;6906.50;751.29;1787766.06;0.22;644.81;36.48;13328.63;2.00;0.00;7.00;1.55;2.19;0.00;2045.80;1076.60;886123.61;31.00;    Femminile;  59;   Intellettuale;     13;   Sano
63.00;5.02;0.03;0.63;0.22;0.02;4.80;6.51;5.49;0.14;-1.46;0.81;-0.04;0.31;-24.13;5.85;-0.96;37.49;-117.49;79.96;5.65;2864.54;2.83;4.98;3.61;0.53;-0.18;0.28;0.08;0.02;0.00;0.18;0.05;0.00;-2.97;2.64;0.05;2.58;-0.15;0.10;0.00;0.00;-1.38;1.53;-0.13;0.37;-65.42;0.67;-2.47;188.36;0.00;1.47;0.41;0.16;0.07;4.73;1.86;1.72;0.00;1.63;0.49;0.23;75.40;1074.60;380.95;77148.66;1.68;184.83;24.64;1459.19;104.42;1302.99;455.40;98342.50;2.75;224.11;30.89;2300.95;2.50;0.00;8.00;2.43;4.26;0.00;2047.00;1349.86;784402.05;23.00;    Maschile;  62;   Manuale;     13;   Sano
64.00;4.20;0.01;0.35;0.17;0.01;4.72;6.19;5.40;0.10;-1.47;1.01;0.01;0.28;-10.36;5.51;-0.25;13.00;-102.90;54.75;-6.13;2211.45;4.20;6.37;5.11;0.49;-0.32;0.41;0.07;0.03;0.00;0.15;0.04;0.00;-2.61;2.08;-0.11;2.13;0.00;0.15;0.02;0.00;-1.04;0.21;-0.27;0.11;-3.21;0.85;0.26;0.71;0.00;1.53;0.39;0.16;0.00;6.12;1.93;2.54;0.00;1.59;0.44;0.20;6.87;750.95;263.74;32731.89;0.70;33.45;10.92;46.35;7.57;822.77;312.14;46119.80;0.96;35.40;12.72;59.41;3.00;0.00;4.00;1.16;1.56;0.00;1651.08;1365.74;209122.41;25.00;    Femminile;  54;   Intellettuale;     13;   Sano
65.00;5.14;0.01;0.33;0.16;0.01;4.49;6.50;5.40;0.10;-1.73;1.21;-0.00;0.28;-12.48;8.52;-0.30;18.36;-987.73;106.61;-30.87;33756.70;3.44;5.85;4.70;0.54;-0.45;0.81;0.05;0.08;0.00;0.19;0.05;0.00;-3.02;2.87;-0.47;2.96;-0.22;0.36;0.01;0.01;-0.54;0.44;-0.09;0.05;-3.16;2.05;0.21;1.04;0.00;1.75;0.42;0.18;0.11;6.80;2.73;3.57;0.00;1.77;0.47;0.23;46.14;1036.38;430.80;61929.19;0.16;75.02;11.32;180.10;47.36;1077.10;561.98;80836.37;0.35;83.25;14.65;261.10;2.50;0.00;3.00;1.52;1.07;0.00;1728.00;768.55;475361.61;33.00;    Maschile;  62;   Intellettuale;     13;   Sano
66.00;3.82;0.02;0.41;0.15;0.01;4.43;5.98;4.97;0.11;-1.51;1.24;0.01;0.33;-10.02;8.33;0.07;19.35;-239.63;120.14;-0.70;6917.36;2.94;5.59;4.14;0.63;-0.15;0.54;0.09;0.03;0.00;0.25;0.05;0.00;-2.71;2.14;-0.34;1.99;-0.00;0.20;0.02;0.00;-0.63;0.08;-0.20;0.05;0.10;6.24;0.78;1.41;0.01;1.52;0.43;0.18;0.30;5.95;2.81;2.36;0.01;1.59;0.50;0.23;39.39;846.82;439.76;38661.38;0.27;56.85;9.44;116.14;45.33;868.95;531.22;44008.54;0.32;103.14;12.75;382.76;3.00;0.00;4.00;1.28;0.88;0.00;2047.00;1393.83;766360.12;25.00;    Maschile;  58;   Intellettuale;     13;   Sano
67.00;5.85;0.03;0.38;0.19;0.01;4.50;6.09;5.23;0.09;-1.59;1.02;0.01;0.24;-10.21;5.99;0.15;10.78;-119.90;75.30;2.71;2011.19;3.19;5.74;4.41;0.62;-0.55;0.53;0.06;0.06;0.01;0.15;0.05;0.00;-3.01;2.60;-0.25;2.73;-0.00;0.11;0.01;0.00;-0.80;0.92;-0.15;0.14;0.17;2.44;0.62;0.19;0.02;1.59;0.41;0.13;0.54;6.16;2.22;1.55;0.02;1.66;0.46;0.15;36.25;640.20;296.89;22135.50;0.35;43.98;10.72;91.94;124.64;761.86;391.24;29228.82;1.06;67.23;13.91;168.62;2.50;0.00;5.00;1.87;1.65;0.00;1970.54;990.43;664086.07;31.00;    Maschile;  81;   Intellettuale;     13;   Sano
68.00;4.95;0.04;0.36;0.18;0.01;4.43;5.78;5.06;0.08;-1.34;0.82;0.01;0.22;-8.04;13.01;0.24;17.57;-94.88;1002.57;55.56;47910.37;3.38;5.20;4.21;0.36;-0.27;0.34;0.06;0.01;0.01;0.15;0.04;0.00;-2.56;2.59;-0.12;2.51;-0.06;0.07;0.00;0.00;-1.01;0.69;-0.20;0.11;-3.85;3.38;0.44;1.08;0.02;1.35;0.37;0.10;0.23;9.07;2.17;3.34;0.02;1.42;0.41;0.12;68.73;5428.45;646.19;1354438.98;0.72;151.65;17.99;844.12;98.56;6734.78;798.24;2124017.90;0.85;197.09;23.55;1510.94;2.00;0.00;4.00;1.63;1.17;0.00;1843.41;845.61;523053.93;27.00;    Maschile;  71;   Intellettuale;     18;   Sano
69.00;7.31;0.01;0.57;0.18;0.02;5.18;6.97;5.57;0.10;-1.46;0.97;-0.03;0.14;-5.71;5.25;-0.14;5.08;-3889.32;57.80;-95.66;370217.62;2.78;6.17;4.25;0.60;-2.08;1.15;-0.01;0.22;0.00;0.31;0.05;0.00;-3.14;2.92;-0.61;3.99;0.00;0.08;0.00;0.00;-0.61;2.83;-0.06;0.24;-32.92;7.00;-0.12;29.03;0.01;2.55;0.35;0.24;0.21;5.00;1.70;1.40;0.01;2.58;0.39;0.26;11.17;828.42;222.16;28322.68;0.01;131.30;13.41;466.19;24.96;1693.92;347.21;83790.08;0.03;426.63;25.98;4467.53;1.50;0.00;10.00;1.93;3.87;0.00;2041.87;661.88;668006.49;41.00;    Maschile;  72;   Intellettuale;     13;   Sano
70.00;4.66;0.01;0.49;0.20;0.01;4.47;6.39;5.54;0.14;-1.67;1.22;0.00;0.42;-9.37;6.77;-0.07;20.09;-153.11;147.89;-2.09;5674.11;2.93;6.41;4.59;0.96;-0.82;1.42;0.14;0.30;0.00;0.13;0.05;0.00;-3.14;2.63;-0.69;2.82;-0.34;0.15;-0.01;0.01;-1.00;1.35;-0.12;0.24;-2.23;3.22;0.46;0.71;0.01;1.81;0.69;0.24;0.67;11.34;3.93;5.95;0.01;1.98;0.79;0.29;51.17;999.76;432.65;63276.47;0.05;42.78;10.48;106.60;59.01;1648.20;640.93;149970.10;0.06;61.79;14.82;198.08;2.00;0.00;3.00;1.65;1.24;0.00;1993.41;1155.31;693534.40;23.00;    Femminile;  75;   Intellettuale;     18;   Sano
71.00;7.13;0.01;0.47;0.17;0.01;4.84;6.09;5.39;0.07;-1.12;0.71;-0.01;0.12;-6.30;4.53;0.14;6.47;-101.41;80.07;-1.74;1891.92;2.68;4.67;3.46;0.32;-0.29;0.22;0.04;0.01;0.00;0.13;0.04;0.00;-2.96;3.14;-0.01;2.73;-0.01;0.09;0.00;0.00;-0.99;0.48;-0.17;0.10;-2.17;5.72;0.53;1.12;0.00;1.13;0.26;0.06;0.02;3.90;1.44;0.71;0.00;1.18;0.29;0.08;54.84;823.42;297.03;33480.44;0.06;47.40;13.53;129.52;72.54;975.14;359.70;48838.56;0.12;54.14;16.23;179.28;1.50;0.00;6.00;1.44;2.11;0.00;1830.52;903.00;557444.85;43.00;    Femminile;  79;   Manuale;     5;   Sano
72.00;10.79;0.00;0.64;0.20;0.02;4.52;6.14;5.23;0.11;-1.57;0.97;-0.00;0.19;-14.08;21.10;0.12;17.29;-501.64;809.41;37.68;37715.18;2.69;5.96;3.74;0.83;-0.98;1.32;0.05;0.10;0.00;0.29;0.05;0.00;-3.14;2.78;-0.23;2.83;-0.04;0.10;0.00;0.00;-0.50;2.88;0.03;0.25;-0.28;5.43;0.52;0.51;0.00;1.69;0.35;0.16;0.00;12.87;1.80;3.74;0.00;1.70;0.40;0.19;0.00;8219.42;662.52;2127487.22;0.00;155.75;24.38;1331.92;0.00;8715.56;830.66;2759091.86;0.00;319.81;34.10;3161.70;1.00;0.00;8.00;2.00;4.07;0.00;1674.57;561.86;468113.02;55.00;    Maschile;  73;   Manuale;     8;   Malato
73.00;10.55;0.01;0.95;0.17;0.03;5.02;6.34;5.59;0.05;-1.21;0.89;-0.01;0.10;-7.16;5.22;-0.10;2.71;-82.50;52.68;-0.11;506.13;2.90;5.47;4.45;0.55;-0.89;0.44;0.02;0.03;0.00;0.24;0.04;0.00;-3.06;3.14;-0.05;3.21;-0.01;0.14;0.00;0.00;-1.08;1.25;-0.09;0.14;-503.83;2.68;-7.89;4168.15;0.00;1.50;0.18;0.10;0.00;3.22;0.69;0.52;0.00;1.72;0.21;0.13;0.51;599.30;133.75;17852.40;0.03;248.95;18.39;1220.09;1.50;793.58;182.81;27696.98;0.04;301.40;24.92;1800.43;1.50;0.00;9.00;1.79;4.44;0.00;1907.27;886.26;616601.10;61.00;    Femminile;  79;   Manuale;     5;   Malato
74.00;5.84;0.00;0.67;0.18;0.02;4.70;5.99;5.32;0.07;-1.29;0.99;-0.00;0.17;-9.46;4.52;0.02;6.80;-260.64;63.83;-7.52;3697.55;2.83;5.42;4.24;0.67;-0.69;0.52;0.06;0.04;0.00;0.24;0.05;0.00;-3.01;1.90;-0.19;1.89;0.00;0.11;0.01;0.00;-0.90;1.25;-0.06;0.21;-0.24;1.05;0.46;0.07;0.00;1.31;0.31;0.11;0.00;4.81;1.75;1.00;0.00;1.35;0.36;0.13;0.00;805.13;310.56;31424.36;0.00;81.67;14.37;334.17;0.00;924.32;418.28;47012.65;0.00;124.35;18.87;629.43;2.00;0.00;6.00;1.70;2.41;0.00;2045.14;983.68;780091.89;33.00;    Femminile;  62;   Intellettuale;     13;   Sano
75.00;3.40;0.01;0.41;0.20;0.01;5.01;6.34;5.68;0.11;-1.12;0.72;-0.02;0.30;-8.78;4.81;-0.07;22.44;-136.97;106.52;5.14;5853.97;3.94;5.86;4.78;0.39;-0.10;0.35;0.11;0.02;0.00;0.14;0.06;0.00;-1.86;1.62;-0.14;1.85;-0.01;0.09;0.01;0.00;-0.89;0.61;-0.22;0.14;0.17;14.29;1.29;11.23;0.01;1.12;0.50;0.07;1.28;4.94;2.72;1.00;0.01;1.13;0.56;0.09;79.67;1043.20;505.51;54813.11;0.05;87.70;16.67;375.75;124.03;1134.69;578.87;57954.05;0.07;99.14;19.30;494.90;1.50;0.00;5.00;1.65;1.87;0.00;2047.00;1862.04;288407.14;17.00;    Femminile;  54;   Intellettuale;     18;   Sano
76.00;5.40;0.01;0.44;0.22;0.01;4.26;5.64;4.89;0.07;-1.27;0.78;-0.00;0.20;-7.47;4.45;-0.11;6.55;-67.66;69.30;-0.23;908.39;2.82;4.41;3.44;0.25;-0.40;0.29;0.04;0.03;0.00;0.13;0.04;0.00;-3.14;3.06;-0.26;2.79;-0.02;0.06;0.00;0.00;-0.96;0.20;-0.28;0.10;0.20;2.87;0.55;0.25;0.00;1.31;0.33;0.11;0.08;4.25;1.36;0.94;0.00;1.32;0.36;0.12;5.19;415.67;173.83;10657.29;0.01;30.82;11.39;46.10;17.47;453.06;216.21;11912.81;0.03;33.65;14.48;55.83;2.00;0.00;4.00;1.84;1.22;0.00;1601.87;911.72;346736.60;25.00;    Femminile;  65;   Manuale;     8;   Malato
77.00;3.58;0.10;0.25;0.19;0.00;4.82;6.51;5.68;0.16;-1.66;1.22;0.01;0.52;-13.38;9.66;-0.18;36.48;-177.16;121.62;-1.42;7702.05;3.70;6.37;4.97;0.64;-0.55;0.48;0.10;0.05;0.01;0.14;0.05;0.00;-2.81;2.02;-0.20;2.56;0.00;0.15;0.02;0.00;-0.74;0.40;-0.26;0.07;0.29;0.84;0.47;0.02;0.18;1.67;0.64;0.15;1.80;7.16;3.67;2.50;0.18;1.72;0.72;0.17;229.51;1349.74;611.62;82792.91;3.50;26.32;11.83;43.23;267.54;1422.15;725.56;83039.49;4.08;29.02;14.15;52.26;1.00;0.00;4.00;1.63;1.36;0.00;2047.00;1681.11;586435.73;19.00;    Maschile;  63;   Intellettuale;     18;   Malato
78.00;4.83;0.01;0.51;0.17;0.01;4.94;5.81;5.21;0.04;-0.81;0.60;0.01;0.09;-7.86;4.57;0.14;6.91;-114.00;78.42;1.24;2052.91;3.28;5.15;4.17;0.27;-0.56;0.62;0.02;0.07;0.00;0.24;0.07;0.00;-3.14;2.32;-0.51;2.89;-0.05;0.17;0.01;0.00;-1.58;2.10;-0.10;0.46;-5.01;5.69;0.32;2.46;0.00;0.96;0.32;0.06;0.07;7.98;2.35;3.25;0.00;1.27;0.40;0.11;36.51;861.82;273.77;30732.64;0.06;74.14;11.44;233.67;41.17;2018.09;535.31;163224.18;0.07;138.24;21.91;1087.87;0.50;0.00;5.00;1.59;1.61;0.00;2011.25;1097.90;553896.86;29.00;    Maschile;  47;   Intellettuale;     21;   Sano
79.00;7.62;0.01;0.44;0.11;0.01;4.55;5.94;5.14;0.03;-1.28;0.88;0.00;0.07;-8.65;6.09;-0.05;3.86;-111.80;105.78;-0.17;1037.50;3.67;5.95;4.09;0.33;-0.16;0.52;0.03;0.01;0.00;0.21;0.04;0.00;-3.14;3.14;0.01;3.29;-0.03;0.25;0.01;0.00;-1.44;1.43;-0.11;0.12;-0.21;0.72;0.38;0.03;0.00;1.29;0.14;0.07;0.00;5.07;0.87;1.85;0.00;1.32;0.18;0.11;0.22;693.35;135.78;28493.93;0.14;57.84;14.81;184.98;0.56;934.31;180.04;48431.76;0.14;104.29;22.19;453.61;0.00;0.00;6.00;0.99;1.66;0.00;2047.00;880.01;821104.11;68.00;    Maschile;  45;   Intellettuale;     18;   Sano
80.00;3.57;0.03;0.52;0.19;0.01;4.96;6.22;5.55;0.08;-1.14;1.01;0.01;0.23;-8.90;5.03;-0.62;13.94;-92.65;129.89;3.86;2759.34;3.86;5.90;4.83;0.39;-0.27;0.68;0.10;0.05;0.01;0.12;0.04;0.00;-2.27;3.00;-0.07;1.92;-0.05;0.10;0.01;0.00;-0.63;1.30;-0.16;0.18;-5.25;0.83;0.12;1.71;0.04;1.22;0.39;0.13;1.00;4.55;2.03;1.18;0.04;1.36;0.43;0.16;121.64;796.24;294.27;27035.81;0.60;57.37;11.32;156.91;149.92;833.96;385.08;31417.04;0.74;76.95;14.34;270.82;0.00;0.00;5.00;1.74;1.65;0.00;2015.30;1286.13;453993.38;19.00;    Femminile;  53;   Intellettuale;     21;   Sano
81.00;4.01;0.05;0.44;0.17;0.01;3.74;5.58;4.53;0.15;-1.50;1.07;-0.01;0.41;-11.75;10.09;0.44;34.22;-133.41;128.72;14.13;6833.22;2.73;5.18;3.85;0.55;-0.51;0.37;0.09;0.04;0.01;0.14;0.06;0.00;-2.75;1.31;-0.38;1.94;0.00;0.25;0.03;0.00;-0.87;0.00;-0.33;0.05;0.23;3.92;0.64;0.54;0.05;1.53;0.54;0.16;0.72;6.89;3.37;3.06;0.07;1.58;0.62;0.19;113.25;953.56;541.58;54648.99;0.53;64.18;12.24;145.75;221.95;1029.13;615.54;63569.56;0.66;66.00;13.62;154.34;0.00;0.00;3.00;1.39;0.98;0.00;2047.00;1595.98;590133.68;23.00;    Maschile;  56;   Intellettuale;     13;   Sano
82.00;3.69;0.03;0.31;0.15;0.01;4.97;6.61;5.82;0.11;-1.55;0.95;-0.02;0.27;-8.13;6.46;0.04;15.62;-124.94;139.41;-1.38;5469.77;3.32;5.72;4.15;0.53;-0.64;0.46;0.07;0.04;0.00;0.14;0.04;0.00;-2.44;1.76;-0.37;1.92;-0.10;0.07;0.00;0.00;-0.68;0.75;-0.12;0.09;-0.73;3.53;0.60;0.52;0.00;1.56;0.40;0.15;0.10;5.66;2.44;2.05;0.00;1.64;0.45;0.18;42.77;804.94;429.66;53568.39;0.18;22.71;9.20;46.28;77.37;1145.66;525.97;80194.34;0.19;37.65;11.68;95.48;0.50;0.00;4.00;1.36;1.24;0.00;2047.00;1287.44;816896.91;25.00;    Femminile;  52;   Intellettuale;     18;   Sano
83.00;4.00;0.02;0.58;0.16;0.01;4.83;6.33;5.66;0.12;-1.32;1.29;-0.02;0.29;-10.55;28.41;0.21;51.66;-582.92;1570.78;61.94;162414.51;3.90;6.02;4.79;0.38;-0.83;0.75;0.07;0.10;0.00;0.15;0.07;0.00;-2.56;2.16;-0.32;2.25;-0.01;0.19;0.02;0.00;-1.02;1.76;-0.20;0.30;0.03;1.04;0.50;0.06;0.00;1.53;0.49;0.15;0.06;19.40;3.96;12.63;0.00;1.55;0.59;0.19;155.84;11228.96;1279.73;5994199.70;0.38;1002.11;64.04;45572.82;171.05;13739.46;1618.51;8976565.12;0.58;1214.22;78.65;67368.92;0.00;0.00;6.00;1.28;2.21;0.00;2047.00;1083.52;841197.03;25.00;    Femminile;  62;   Intellettuale;     20;   Sano
84.00;3.79;0.01;0.37;0.19;0.01;4.26;5.86;5.03;0.12;-1.50;1.05;-0.01;0.35;-7.80;5.92;0.26;16.98;-88.63;89.72;-6.39;3358.82;2.90;5.18;4.08;0.52;-0.10;0.60;0.11;0.02;0.00;0.14;0.06;0.00;-2.21;1.73;-0.14;1.79;-0.01;0.10;0.01;0.00;-0.93;0.22;-0.32;0.11;0.28;23.20;1.68;25.74;0.02;1.50;0.46;0.16;1.13;5.12;2.53;1.30;0.02;1.54;0.53;0.19;34.96;923.52;387.16;53324.56;0.02;64.54;12.53;172.74;49.72;1100.90;454.29;68895.25;0.02;82.23;15.09;282.09;0.00;0.00;4.00;1.65;1.19;0.00;1967.59;1399.87;494493.96;20.00;    Femminile;  54;   Intellettuale;     18;   Sano
85.00;4.26;0.01;0.28;0.16;0.01;4.99;6.30;5.60;0.07;-1.20;0.72;-0.01;0.19;-7.21;5.15;0.11;12.39;-109.47;110.08;5.91;3472.60;3.18;5.37;4.24;0.43;-0.26;0.55;0.06;0.04;0.00;0.15;0.04;0.00;-3.06;3.02;-0.13;2.85;-0.01;0.08;0.01;0.00;-1.16;0.32;-0.13;0.08;-1.80;16.62;1.02;9.94;0.01;1.23;0.38;0.08;0.33;4.85;2.46;1.36;0.01;1.25;0.42;0.09;47.00;794.73;396.23;38354.86;0.05;42.75;9.86;72.00;67.27;845.90;496.80;38938.50;0.06;56.53;12.40;118.48;0.00;0.00;4.00;1.41;0.94;0.00;2047.00;1232.64;916652.75;27.00;    Femminile;  54;   Intellettuale;     18;   Sano
86.00;0.00;0.00;0.00;0.00;0.00;29.70;29.70;29.70;0.00;0.00;0.00;0.00;0.00;0.00;0.00;0.00;0.00;0.00;0.00;0.00;0.00;21.00;21.00;21.00;0.00;0.00;0.00;0.00;0.00;0.00;0.00;0.00;0.00;0.00;0.00;0.00;0.00;0.00;0.00;0.00;0.00;0.00;0.00;0.00;0.00;0.00;0.00;0.00;0.00;0.00;0.00;0.00;0.00;0.00;0.00;0.00;0.00;0.00;0.00;0.00;0.00;0.00;0.00;0.00;0.00;0.00;0.00;0.00;0.00;0.00;0.00;0.00;0.00;0.00;0.00;0.00;0.00;0.50;0.00;0.00;0.00;0.00;0.00;0.00;0.00;0.00;1.00;    Femminile;  83;   Manuale;     5;   Malato
87.00;17.12;0.01;0.92;0.16;0.03;4.77;6.82;5.29;0.06;-1.03;1.98;0.00;0.09;-5.53;3.38;0.05;2.07;-402.21;253.29;-2.04;2976.82;2.09;8.19;3.85;1.48;-3.42;1.82;-0.03;0.23;0.00;0.19;0.04;0.00;-3.14;3.10;-0.18;3.48;-0.00;0.01;0.00;0.00;-1.14;1.45;0.03;0.16;-2.25;13.76;0.47;2.01;0.00;3.43;0.25;0.26;0.00;42.92;1.40;19.77;0.00;3.43;0.28;0.31;1.48;2396.00;170.90;86555.99;0.08;374.75;18.56;1603.83;7.36;25315.65;907.76;11473532.01;0.12;3235.61;69.64;124596.67;0.00;0.00;9.00;1.67;3.61;0.00;2047.00;762.49;696790.12;105.00;    Femminile;  82;   Manuale;     5;   Malato
88.00;7.74;0.00;0.46;0.19;0.02;4.79;6.63;5.52;0.11;-1.28;1.24;0.02;0.22;-7.64;7.32;0.08;9.91;-129.88;157.95;7.76;2661.12;3.42;5.76;4.55;0.48;-0.50;0.80;0.05;0.07;0.00;0.13;0.04;0.00;-2.74;3.07;-0.23;2.91;-0.03;0.07;0.00;0.00;-0.97;0.56;-0.12;0.11;-5.73;2.21;0.19;1.33;0.00;1.47;0.38;0.14;0.00;5.22;1.81;1.88;0.00;1.53;0.41;0.16;0.00;1185.99;309.07;45314.39;0.00;127.89;17.62;493.31;0.00;1305.05;375.17;55618.72;0.00;139.41;21.35;626.24;0.50;0.00;6.00;1.98;2.57;0.00;1895.70;818.33;505452.69;41.00;    Maschile;  88;   Manuale;     3;   Malato
89.00;7.39;0.01;0.49;0.16;0.01;5.10;6.35;5.60;0.05;-1.25;0.76;0.01;0.13;-66.81;5.44;-1.20;103.22;-79.40;1179.91;26.63;31040.48;2.59;4.90;3.55;0.46;-0.53;0.47;0.04;0.02;0.00;0.13;0.04;0.00;-3.04;2.90;-0.06;2.44;-0.04;0.08;0.00;0.00;-1.61;1.16;-0.11;0.18;-5.13;779.05;17.90;12902.65;0.00;1.25;0.26;0.08;0.04;8.34;1.63;2.18;0.00;1.67;0.33;0.15;10.70;1094.61;256.11;42658.21;0.05;94.00;12.55;293.37;30.23;12315.43;740.62;4785305.02;0.05;1543.35;51.63;51309.31;0.00;0.00;7.00;1.57;2.60;0.00;1748.83;560.48;490058.18;47.00;    Femminile;  71;   Manuale;     13;   Malato
90.00;25.65;0.00;2.10;0.10;0.03;5.15;6.43;5.66;0.04;-0.88;0.62;-0.00;0.01;-1.93;1.62;-0.01;0.14;-49.50;241.18;1.22;415.52;2.85;6.31;3.43;0.22;-1.30;0.25;-0.01;0.01;0.00;0.32;0.02;0.00;-3.14;3.14;0.10;3.32;-0.00;0.01;0.00;0.00;-1.72;1.48;-0.04;0.06;-1876.90;3.03;-20.85;31164.62;0.00;1.34;0.04;0.02;0.00;3.45;0.19;0.11;0.00;1.34;0.05;0.02;0.00;353.79;51.59;2883.35;0.00;1287.40;21.29;7583.70;0.00;822.58;72.65;6053.07;0.00;1622.88;29.12;11873.74;0.50;0.00;31.00;0.96;6.35;0.00;682.07;164.33;34895.67;252.00;    Femminile;  77;   Intellettuale;     13;   Malato
91.00;8.92;0.01;0.56;0.16;0.02;4.83;5.77;5.11;0.02;-0.89;0.82;-0.00;0.05;-7.77;5.26;-0.02;2.86;-113.43;63.64;0.56;812.51;3.21;5.77;4.98;0.31;-1.41;0.59;0.02;0.05;0.00;0.32;0.06;0.00;-3.11;3.14;-0.24;2.09;-0.05;0.12;0.00;0.00;-1.22;1.65;-0.03;0.27;-4.46;6.34;0.65;1.74;0.00;1.42;0.18;0.07;0.02;8.38;1.16;1.74;0.00;1.42;0.21;0.09;21.42;761.63;165.89;17447.59;0.01;175.29;16.03;751.25;42.08;1735.44;271.74;66256.61;0.04;280.14;25.34;1929.61;1.00;0.00;6.00;1.30;2.07;0.00;2045.90;505.83;590158.59;57.00;    Maschile;  79;   Intellettuale;     18;   Sano
92.00;32.74;0.01;1.32;0.12;0.04;4.75;7.00;5.49;0.08;-2.25;1.22;-0.01;0.04;-104.05;2.66;-0.49;42.11;-389.36;55.14;-3.66;1021.42;3.76;5.76;4.53;0.37;-0.74;0.48;-0.00;0.01;0.00;0.38;0.03;0.00;-3.14;3.14;-0.12;3.32;-0.00;0.00;0.00;0.00;-1.20;1.48;0.01;0.07;-3179.33;3.04;-33.80;84393.84;0.00;2.36;0.07;0.05;0.00;2.74;0.27;0.21;0.00;2.60;0.08;0.06;0.01;992.91;71.77;12129.18;0.00;962.91;28.53;7769.05;0.03;1112.06;93.37;16846.97;0.00;1150.07;39.32;11845.11;0.50;0.00;19.00;1.27;7.70;0.00;2020.00;1086.62;791797.15;264.00;    Femminile;  68;   Intellettuale;     18;   Malato
93.00;6.02;0.00;0.46;0.16;0.02;4.96;6.51;5.63;0.08;-1.37;0.95;-0.01;0.17;-6.60;4.66;0.22;5.97;-78.89;66.37;2.44;1073.42;2.74;5.58;3.87;0.81;-0.16;0.39;0.07;0.01;0.00;0.17;0.03;0.00;-1.95;2.54;0.15;1.59;-0.00;0.12;0.01;0.00;-0.82;1.38;-0.07;0.15;0.00;20.35;1.35;11.77;0.00;1.37;0.28;0.11;0.00;3.45;1.35;0.77;0.00;1.38;0.31;0.13;0.00;758.74;228.40;31085.27;0.00;88.22;13.10;263.88;0.00;785.94;287.42;32635.19;0.00;91.39;15.97;314.48;1.00;0.00;7.00;1.84;3.58;0.00;1802.33;868.63;540685.69;37.00;    Maschile;  68;   Manuale;     8;   Malato
94.00;5.96;0.02;0.69;0.22;0.02;5.50;6.89;5.95;0.07;-1.19;0.60;-0.03;0.15;-11.03;2.97;-0.45;7.96;-259.57;38.18;-15.37;4086.00;2.93;4.58;3.67;0.27;-0.67;0.30;0.02;0.03;0.00;0.12;0.05;0.00;-2.81;2.82;-0.27;2.49;-0.02;0.06;0.00;0.00;-1.05;1.08;-0.20;0.22;-2.92;2.55;0.41;0.70;0.00;1.23;0.31;0.09;0.03;5.67;1.33;1.19;0.00;1.25;0.34;0.11;28.21;1582.14;234.79;83971.21;0.05;149.54;19.07;807.55;43.54;1757.78;302.13;100525.25;0.16;177.81;24.49;1146.21;0.50;0.00;12.00;2.07;5.30;0.00;2024.59;1218.36;796128.81;27.00;    Femminile;  66;   Manuale;     5;   Malato
95.00;12.56;0.01;0.73;0.14;0.02;5.11;6.45;5.53;0.07;-0.81;0.45;-0.01;0.03;-7.19;2.73;-0.09;1.98;-260.84;93.44;-4.81;1752.23;2.48;5.16;3.05;0.36;-2.02;0.77;0.00;0.06;0.00;0.14;0.03;0.00;-3.00;3.14;-0.31;3.16;0.00;0.05;0.00;0.00;-0.88;0.49;-0.04;0.05;-7.37;5.21;0.35;1.32;0.00;2.18;0.13;0.07;0.00;7.54;0.60;0.99;0.00;2.71;0.14;0.10;1.46;2209.40;147.18;79857.95;0.05;170.54;17.63;553.65;1.95;19329.53;461.82;5013010.20;0.09;508.25;33.58;5674.37;0.00;0.00;11.00;1.55;3.88;0.00;1989.92;579.59;507145.79;93.00;    Femminile;  61;   Intellettuale;     18;   Malato
96.00;5.44;0.02;0.57;0.16;0.01;3.96;5.51;4.49;0.13;-1.47;1.39;0.02;0.24;-7.33;6.65;0.24;8.30;-2104.28;80.43;-58.00;136844.77;2.44;5.25;3.85;0.70;-0.50;1.08;0.06;0.10;0.00;0.10;0.03;0.00;-2.98;2.99;-0.38;3.78;-0.10;0.12;0.00;0.00;-0.44;1.24;0.01;0.10;-5.02;2.35;0.31;1.09;0.00;1.76;0.38;0.19;0.10;6.16;2.07;2.13;0.00;1.91;0.42;0.22;20.29;627.66;266.39;32772.64;0.08;102.79;10.76;323.42;68.34;787.74;362.41;48140.46;0.35;125.89;14.35;490.29;0.50;0.00;5.00;1.39;1.06;0.00;2047.00;930.40;870834.61;33.00;    Maschile;  68;   Intellettuale;     18;   Sano
97.00;23.41;0.00;0.97;0.15;0.03;4.91;7.07;5.96;0.09;-1.31;1.17;-0.00;0.06;-4.79;18.89;0.11;3.51;-95.90;910.17;9.85;7992.36;2.87;4.99;4.07;0.51;-0.44;0.79;0.01;0.01;0.00;0.23;0.03;0.00;-3.14;3.14;-0.07;2.88;-0.00;0.01;0.00;0.00;-1.29;1.29;-0.01;0.09;-2.84;5.18;0.41;0.33;0.00;1.31;0.11;0.06;0.00;14.60;0.48;1.63;0.00;1.33;0.12;0.06;0.07;7682.13;197.97;498451.77;0.00;731.10;34.00;5019.02;0.13;10334.25;256.24;898227.66;0.00;960.53;43.94;8193.38;0.00;0.00;14.00;1.35;6.04;0.00;1972.50;820.77;523752.77;161.00;    Femminile;  72;   Intellettuale;     10;   Malato
98.00;23.79;0.00;1.11;0.17;0.04;4.55;6.85;5.46;0.10;-2.30;1.36;-0.01;0.11;-4.80;5.66;0.00;1.24;-144.77;62.78;-0.12;464.36;3.42;6.09;4.46;0.50;-1.77;1.56;-0.00;0.06;0.00;0.14;0.02;0.00;-3.08;3.04;-0.10;3.30;-0.08;0.03;-0.00;0.00;-1.51;1.51;-0.01;0.10;-903.08;2.54;-5.86;5668.76;0.00;2.54;0.16;0.15;0.00;4.25;0.43;0.51;0.00;4.44;0.18;0.24;0.00;644.30;104.89;15080.34;0.00;365.06;25.26;2242.56;0.00;1218.59;141.65;26870.02;0.00;518.81;36.03;4525.57;0.50;0.00;14.00;1.72;7.15;0.00;1998.55;960.79;769021.85;144.00;    Maschile;  72;   Manuale;     5;   Malato
99.00;16.31;0.01;0.83;0.21;0.04;4.24;5.72;4.81;0.07;-1.19;0.97;-0.00;0.11;-4.11;7.61;0.13;3.07;-44.26;559.42;13.52;5260.33;3.15;5.78;4.74;0.52;-0.35;0.48;0.03;0.02;0.00;0.21;0.04;0.00;-3.14;2.92;-0.12;3.39;0.00;0.15;0.00;0.00;-1.26;1.54;-0.11;0.22;-2.20;2.85;0.36;0.43;0.00;1.19;0.22;0.08;0.00;2.64;0.84;0.56;0.00;1.25;0.26;0.11;2.61;2590.92;198.87;104211.87;0.04;475.02;33.97;5809.27;9.36;2801.66;261.41;123793.96;0.25;513.66;43.75;7129.22;0.00;0.00;13.00;2.35;7.46;0.00;2047.00;903.03;826178.05;79.00;    Femminile;  74;   Manuale;     5;   Malato
